{ "floor" : 2, "room_number" : 0 }
{ "floor" : 2, "room_number" : 0 }
{ "floor" : 2, "room_number" : 0 }
{ "floor" : 2, "room_number" : 0 }
{ "floor" : 2, "room_number" : 0 }
{ "floor" : 2, "room_number" : 0 }
{ "floor" : 2, "room_number" : 0 }


